Building Queries • elasticquery
…
Here, of course, the query is empty as we haven’t specified aggregation dimensions yet.

Queries can be executed using the run() function.

run(query)
#> # A tibble: 0 x 0

Since the query is empty, nothing is returned.

Getting a List of Queryable Fields

To begin specifying fields to aggregate on, it can be helpful to get a view of what fields are available to aggregate on. This can be done by passing the connection object to `queryable_fields().

queryable_fields(con)
#> # A tibble: 37 x 2
#>    field                type   
#>    <chr>                <chr>  
#>  1 affectedCountries    keyword
#>  2 affectedCountriesIso keyword
#>  3 childIds             keyword
#>  4 continentCodes       keyword
#>  5 description          text   
#>  6 duplicateId          keyword
#>  7 entityType           keyword
#>  8 flaggedByUserIds     integer
#>  9 fullText             text   
#> 10 id                   integer
#> # … with 27 more rows
…
Note that aggregation queries use composite aggregation with paging, and running the query will automatically take care of recurrent queries until paging is done and bind the results together, saving a lot of tedious work.

We can retrieve the result of this query by calling run().

run(query)
#> # A tibble: 912 x 2
#>    tags                                 count
#>    <chr>                                <int>
#>  1 f:10:All MSF Categories               6010
#>  2 f:10:Biological                       5060
#>  3 f:10:CWA                                 2
#>  4 f:10:Chemical                           64
#>  5 f:10:Disasters                         982
#>  6 f:10:HPV_grouped                         5
#>  7 f:10:HPV_notgrouped                     14
#>  8 f:10:Scenarios                           9
#>  9 f:10:zAll Hazards Threats (optional)    25
#> 10 f:11:All UNICEF Categories            5098
#> # … with 902 more rows

We can continue to add more dimensions to the aggregation using pipes. For example, to count the frequency of both the fields “tags” and “affectedCountriesIso”:

query_agg(con) %>%
  agg_by_field("tags") %>%
  agg_by_field("affectedCountriesIso") %>%
  run()
#> # A tibble: 54,595 x 3
#>    tags                    affectedCountriesIso count
#>    <chr>                   <chr>                <int>
#>  1 f:10:All MSF Categories AD                      11
#>  2 f:10:All MSF Categories AE                      36
#>  3 f:10:All MSF Categories AF                      64
#>  4 f:10:All MSF Categories AG                       2
#>  5 f:10:All MSF Categories AI                       1
#>  6 f:10:All MSF Categories AL                      13
#>  7 f:10:All MSF Categories AM                      19
#>  8 f:10:All MSF Categories AO                       3
#>  9 f:10:All MSF Categories AR                     236
#> 10 f:10:All MSF Categories AS                       3
#> # … with 54,585 more rows

Aggregating by Date Binning

Suppose we want to get daily counts for each tag in the data. We can use a function agg_by_date(), which by default aggregates daily.

Here, we aggregate on a document’s field “processedOnDate”.

query_agg(con) %>%
  agg_by_field("tags") %>%
  agg_by_date("processedOnDate") %>%
  run()
#> # A tibble: 4,291 x 3
#>    tags                    processedOnDate     count
#>    <chr>                   <dttm>              <int>
#>  1 f:10:All MSF Categories 2020-03-05 00:00:00    37
#>  2 f:10:All MSF Categories 2020-03-06 00:00:00   416
#>  3 f:10:All MSF Categories 2020-03-08 00:00:00    21
#>  4 f:10:All MSF Categories 2020-03-13 00:00:00   179
#>  5 f:10:All MSF Categories 2020-03-15 00:00:00    69
#>  6 f:10:All MSF Categories 2020-03-16 00:00:00   104
#>  7 f:10:All MSF Categories 2020-03-17 00:00:00  1345
#>  8 f:10:All MSF Categories 2020-03-18 00:00:00  3839
#>  9 f:10:Biological         2020-03-15 00:00:00     1
#> 10 f:10:Biological         2020-03-16 00:00:00     2
#> # … with 4,281 more rows

For finer control over the date binning, we can use functions calendar_interval() and fixed_interval().

For example, to bin on calendar week:

query_agg(con) %>%
  agg_by_field("tags") %>%
  agg_by_date("processedOnDate", calendar_interval("1w")) %>%
  run()
#> # A tibble: 2,033 x 3
#>    tags                    processedOnDate     count
#>    <chr>                   <dttm>              <int>
#>  1 f:10:All MSF Categories 2020-03-02 00:00:00   474
#>  2 f:10:All MSF Categories 2020-03-09 00:00:00   248
#>  3 f:10:All MSF Categories 2020-03-16 00:00:00  5288
#>  4 f:10:Biological         2020-03-09 00:00:00     1
#>  5 f:10:Biological         2020-03-16 00:00:00  5059
#>  6 f:10:CWA                2020-03-16 00:00:00     2
#>  7 f:10:Chemical           2020-03-16 00:00:00    64
#>  8 f:10:Disasters          2020-03-02 00:00:00   474
#>  9 f:10:Disasters          2020-03-09 00:00:00   247
#> 10 f:10:Disasters          2020-03-16 00:00:00   261
#> # … with 2,023 more rows

And to bin on every 10 days:

query_agg(con) %>%
  agg_by_field("tags") %>%
  agg_by_date("processedOnDate", fixed_interval("10d")) %>%
  run()
#> # A tibble: 1,470 x 3
#>    tags                    processedOnDate     count
#>    <chr>                   <dttm>              <int>
#>  1 f:10:All MSF Categories 2020-02-28 00:00:00   474
#>  2 f:10:All MSF Categories 2020-03-09 00:00:00  5536
#>  3 f:10:Biological         2020-03-09 00:00:00  5060
#>  4 f:10:CWA                2020-03-09 00:00:00     2
#>  5 f:10:Chemical           2020-03-09 00:00:00    64
#>  6 f:10:Disasters          2020-02-28 00:00:00   474
#>  7 f:10:Disasters          2020-03-09 00:00:00   508
#>  8 f:10:HPV_grouped        2020-03-09 00:00:00     5
#>  9 f:10:HPV_notgrouped     2020-03-09 00:00:00    14
#> 10 f:10:Scenarios          2020-03-09 00:00:00     9
#> # … with 1,460 more rows
…
Note that filters can apply to both aggregation and fetch queries.

Range Filters

Range filters are specifyind using filter_range(), specifying the field to filter, and then specifying one or both of from and to values for the range.

For example, to take our earlier aggregation query and filter it to dates later than 2018-01-01:

query_agg(con) %>%
  agg_by_field("tags") %>%
  agg_by_date("processedOnDate") %>%
  filter_range("processedOnDate", from = "2020-03-10") %>%
  run()
#> # A tibble: 2,958 x 3
#>    tags                    processedOnDate     count
#>    <chr>                   <dttm>              <int>
#>  1 f:10:All MSF Categories 2020-03-13 00:00:00   179
#>  2 f:10:All MSF Categories 2020-03-15 00:00:00    69
#>  3 f:10:All MSF Categories 2020-03-16 00:00:00   104
#>  4 f:10:All MSF Categories 2020-03-17 00:00:00  1345
#>  5 f:10:All MSF Categories 2020-03-18 00:00:00  3839
#>  6 f:10:Biological         2020-03-15 00:00:00     1
#>  7 f:10:Biological         2020-03-16 00:00:00     2
#>  8 f:10:Biological         2020-03-17 00:00:00  1317
#>  9 f:10:Biological         2020-03-18 00:00:00  3740
#> 10 f:10:CWA                2020-03-18 00:00:00     2
#> # … with 2,948 more rows

To filter on a date/time, the format is like the following:

query_agg(con) %>%
  agg_by_field("tags") %>%
  agg_by_date("processedOnDate") %>%
  filter_range("processedOnDate", from = "2020-03-10T10:21:32") %>%
  run()
#> # A tibble: 2,958 x 3
#>    tags                    processedOnDate     count
#>    <chr>                   <dttm>              <int>
#>  1 f:10:All MSF Categories 2020-03-13 00:00:00   179
#>  2 f:10:All MSF Categories 2020-03-15 00:00:00    69
#>  3 f:10:All MSF Categories 2020-03-16 00:00:00   104
#>  4 f:10:All MSF Categories 2020-03-17 00:00:00  1345
#>  5 f:10:All MSF Categories 2020-03-18 00:00:00  3839
#>  6 f:10:Biological         2020-03-15 00:00:00     1
#>  7 f:10:Biological         2020-03-16 00:00:00     2
#>  8 f:10:Biological         2020-03-17 00:00:00  1317
#>  9 f:10:Biological         2020-03-18 00:00:00  3740
#> 10 f:10:CWA                2020-03-18 00:00:00     2
#> # … with 2,948 more rows

Terms Filters

The funtion filter_terms() adds a filter to a query that specifies certain values a field must have to be included in the aggregation.

For example, to add to our earlier query, suppose we require that “affectedCountriesIso” must contain “US” or “CA”:

query_agg(con) %>%
  agg_by_field("tags") %>%
  agg_by_date("processedOnDate", calendar_interval("1w")) %>%
  filter_range("processedOnDate", from = "2018-01-01") %>%
  filter_terms("affectedCountriesIso", c("US", "CA")) %>%
  run()
#> # A tibble: 1,638 x 3
#>    tags                    processedOnDate     count
#>    <chr>                   <dttm>              <int>
#>  1 f:10:All MSF Categories 2020-03-02 00:00:00    86
#>  2 f:10:All MSF Categories 2020-03-09 00:00:00    25
#>  3 f:10:All MSF Categories 2020-03-16 00:00:00  1195
#>  4 f:10:Biological         2020-03-16 00:00:00  1169
#>  5 f:10:CWA                2020-03-16 00:00:00     1
#>  6 f:10:Chemical           2020-03-16 00:00:00    17
#>  7 f:10:Disasters          2020-03-02 00:00:00    86
#>  8 f:10:Disasters          2020-03-09 00:00:00    25
#>  9 f:10:Disasters          2020-03-16 00:00:00    37
#> 10 f:10:HPV_grouped        2020-03-16 00:00:00     2
#> # … with 1,628 more rows

Regexp Filters

The function filter_regexp() adds a filter to a query that provides a regular expression that a field must match to be included in the results. Note that unfortuately Elasticsearch regular expressions are case sensitive.

To aggregate tags but only for documents that have a tag that contain “Corona”, for example:

query_agg(con) %>%
  agg_by_field("tags") %>%
  filter_regexp("tags", ".*Corona.*") %>%
  run()
#> # A tibble: 677 x 2
#>    tags                                 count
#>    <chr>                                <int>
#>  1 f:10:All MSF Categories               4899
#>  2 f:10:Biological                       4899
#>  3 f:10:CWA                                 1
#>  4 f:10:Chemical                           27
#>  5 f:10:Disasters                          62
#>  6 f:10:HPV_grouped                         1
#>  7 f:10:HPV_notgrouped                      7
#>  8 f:10:Scenarios                           3
#>  9 f:10:zAll Hazards Threats (optional)     6
#> 10 f:11:All UNICEF Categories            4899
#> # … with 667 more rows
…
Match Filters

The function filter_match() specifies a filter to only include documents where the specified field contains a match for the provided string.

For example, to further refine our aggregation to only include documents where a match for the string “disease” is found in the full text:

query_agg(con) %>%
  agg_by_field("tags") %>%
  agg_by_date("processedOnDate", calendar_interval("1w")) %>%
  filter_range("processedOnDate", from = "2020-03-10") %>%
  filter_terms("affectedCountriesIso", c("US", "CA")) %>%
  filter_match("fullText", "disease") %>%
  run()
#> # A tibble: 772 x 3
#>    tags                                 processedOnDate     count
#>    <chr>                                <dttm>              <int>
#>  1 f:10:All MSF Categories              2020-03-09 00:00:00     1
#>  2 f:10:All MSF Categories              2020-03-16 00:00:00   196
#>  3 f:10:Biological                      2020-03-16 00:00:00   194
#>  4 f:10:CWA                             2020-03-16 00:00:00     1
#>  5 f:10:Chemical                        2020-03-16 00:00:00     5
#>  6 f:10:Disasters                       2020-03-09 00:00:00     1
#>  7 f:10:Disasters                       2020-03-16 00:00:00     7
#>  8 f:10:HPV_notgrouped                  2020-03-16 00:00:00     2
#>  9 f:10:zAll Hazards Threats (optional) 2020-03-16 00:00:00     2
#> 10 f:11:All UNICEF Categories           2020-03-16 00:00:00   196
#> # … with 762 more rows
…
Specifying fields to return

An operation available only for fetch queries, select_fields(), allows us to specify which fields should be returned for each document. This is useful of documents contain some fields that are very large and we don’t want to include them in our results.

To see what values are acceptable for a selectable field:

selectable_fields(con)
#> # A tibble: 45 x 2
#>    field                type   
#>    <chr>                <chr>  
#>  1 affectedCountries    keyword
#>  2 affectedCountriesIso keyword
#>  3 childIds             keyword
#>  4 comments             nested 
#>  5 continentCodes       keyword
#>  6 description          text   
#>  7 duplicateId          keyword
#>  8 entityType           keyword
#>  9 flaggedByUserIds     integer
#> 10 fullText             text   
#> # … with 35 more rows
…
